instructions, branch-misses, cache-references, cache-misses,
2768921,7225,68502,17479,
2797867,748,7226,940,
2794057,600,5116,369,
2785298,553,4995,86,
2794300,601,3373,176,
2794571,544,2332,270,
2800219,561,2117,97,
2808811,540,2571,171,
2807734,557,7339,34,
2805973,570,4596,126,
2769188,919,8720,4166,
2465496,1074,51048,11036,
2234818,1553,27124,13506,
